9782742794300;3,4;CN;1;Ancien support de bibliothque plastifi_. Envoi rapide et soign_.;;9,78274E+12;A113
9782266096171;1,66;CN;1;Ancien support de bibliothque plastifi_. Envoi rapide et soign_.;;9,78227E+12;A113
9782841721207;10,4;CN;1;Ancien support de bibliothque plastifi_. Envoi rapide et soign_.;;9,78284E+12;A113
9782841721504;7,1;CN;1;Ancien support de bibliothque plastifi_. Envoi rapide et soign_.;;9,78284E+12;A113
9782842631185;1,49;CN;1;Ancien support de bibliothque plastifi_. Envoi rapide et soign_.;;9,78284E+12;A113
9782070338320;0,9;CN;1;Ancien support de bibliothque plastifi_. Envoi rapide et soign_.;;9,78207E+12;A113

