9782010146527;1,1;TBE;1;Envoi rapide et soign.;;9782010146527;A36
9782227725393;1,1;TBE;1;Envoi rapide et soign.;;9782227725393;A36
9782070577118;1,1;TBE;1;Envoi rapide et soign.;;9782070577118;A36
9782748500738;1,07;TBE;1;Envoi rapide et soign.;;9782748500738;L13
9782013223997;1,05;TBE;1;Envoi rapide et soign.;;9782013223997;a35
9782266007535;1;TBE;1;Envoi rapide et soign.;;9782266007535;a35
9782803433919;0,9;TBE;1;Envoi rapide et soign.;;9782803433919;A20
9782012239913;0,9;TBE;1;Envoi rapide et soign.;;9782012239913;A20
9782210623941;0,9;TBE;1;Annotation en premire page. Envoi rapide et soign.;;9782210623941;A35
9782012001664;0,9;TBE;1;Annotation en premire page. Envoi rapide et soign.;;9782012001664;A35
9782218057175;0,9;TBE;1;Prnom en premire page. Envoi rapide et soign.;;9782218057175;A36
9782010193071;0,9;TBE;1;Envoi rapide et soign.;;9782010193071;A36
9782218743726;0,9;TBE;1;Envoi rapide et soign.;;9782218743726;A36
9782218749513;0,9;TBE;1;Envoi rapide et soign.;;9782218749513;A36
9782070514151;0,9;TBE;1;Envoi rapide et soign.;;9782070514151;A36
9782747002882;0,9;TBE;1;Envoi rapide et soign.;;9782747002882;A36
9782266108157;0,9;TBE;1;Envoi rapide et soign.;;9782266108157;A36
